^C:\USERS\SCOTT\DROPBOX\WILDYETILABS\HEXAGONGAME-13\CPP\HEXAGON\PROJ.WIN32\DEBUG.WIN32\APPDELEGATE.OBJ|C:\USERS\SCOTT\DROPBOX\WILDYETILABS\HEXAGONGAME-13\CPP\HEXAGON\PROJ.WIN32\DEBUG.WIN32\GAME.RES|C:\USERS\SCOTT\DROPBOX\WILDYETILABS\HEXAGONGAME-13\CPP\HEXAGON\PROJ.WIN32\DEBUG.WIN32\HELLOWORLDSCENE.OBJ|C:\USERS\SCOTT\DROPBOX\WILDYETILABS\HEXAGONGAME-13\CPP\HEXAGON\PROJ.WIN32\DEBUG.WIN32\INTROLAYER.OBJ|C:\USERS\SCOTT\DROPBOX\WILDYETILABS\HEXAGONGAME-13\CPP\HEXAGON\PROJ.WIN32\DEBUG.WIN32\LIBAUDIO.LIB|C:\USERS\SCOTT\DROPBOX\WILDYETILABS\HEXAGONGAME-13\CPP\HEXAGON\PROJ.WIN32\DEBUG.WIN32\LIBCHIPMUNK.LIB|C:\USERS\SCOTT\DROPBOX\WILDYETILABS\HEXAGONGAME-13\CPP\HEXAGON\PROJ.WIN32\DEBUG.WIN32\LIBCOCOS2D.LIB|C:\USERS\SCOTT\DROPBOX\WILDYETILABS\HEXAGONGAME-13\CPP\HEXAGON\PROJ.WIN32\DEBUG.WIN32\MAIN.OBJ|C:\USERS\SCOTT\DROPBOX\WILDYETILABS\HEXAGONGAME-13\CPP\HEXAGON\PROJ.WIN32\DEBUG.WIN32\MENULAYER.OBJ|C:\USERS\SCOTT\DROPBOX\WILDYETILABS\HEXAGONGAME-13\CPP\HEXAGON\PROJ.WIN32\DEBUG.WIN32\MENUTILE.OBJ|C:\USERS\SCOTT\DROPBOX\WILDYETILABS\HEXAGONGAME-13\CPP\HEXAGON\PROJ.WIN32\DEBUG.WIN32\MENUTILEMANAGER.OBJ
C:\USERS\SCOTT\DROPBOX\WILDYETILABS\HEXAGONGAME-13\CPP\HEXAGON\PROJ.WIN32\DEBUG.WIN32\HEXAGON.ILK
C:\USERS\SCOTT\DROPBOX\WILDYETILABS\HEXAGONGAME-13\CPP\HEXAGON\PROJ.WIN32\DEBUG.WIN32\HEXAGON.EXE
C:\USERS\SCOTT\DROPBOX\WILDYETILABS\HEXAGONGAME-13\CPP\HEXAGON\PROJ.WIN32\DEBUG.WIN32\HEXAGON.PDB
