^C:\USERS\SCOTT\DROPBOX\WILDYETILABS\HEXAGONGAME-13\CPP\HEXAGON\COCOS2D\COCOS\AUDIO\WIN32\MCIPLAYER.CPP
C:\PROGRAM FILES (X86)\MICROSOFT VISUAL STUDIO 11.0\COMMON7\IDE\MSPDBSRV.EXE
C:\USERS\SCOTT\DROPBOX\WILDYETILABS\HEXAGONGAME-13\CPP\HEXAGON\COCOS2D\COCOS\AUDIO\WIN32\MCIPLAYER.H
C:\USERS\SCOTT\DROPBOX\WILDYETILABS\HEXAGONGAME-13\CPP\HEXAGON\COCOS2D\COCOS\2D\PLATFORM\WIN32\CCSTDC.H
C:\USERS\SCOTT\DROPBOX\WILDYETILABS\HEXAGONGAME-13\CPP\HEXAGON\COCOS2D\COCOS\BASE\CCPLATFORMCONFIG.H
C:\USERS\SCOTT\DROPBOX\WILDYETILABS\HEXAGONGAME-13\CPP\HEXAGON\COCOS2D\COCOS\BASE\CCPLATFORMMACROS.H
C:\USERS\SCOTT\DROPBOX\WILDYETILABS\HEXAGONGAME-13\CPP\HEXAGON\COCOS2D\COCOS\2D\CCCONFIG.H
C:\USERS\SCOTT\DROPBOX\WILDYETILABS\HEXAGONGAME-13\CPP\HEXAGON\COCOS2D\COCOS\2D\PLATFORM\WIN32\CCPLATFORMDEFINE.H
C:\PROGRAM FILES (X86)\MICROSOFT VISUAL STUDIO 11.0\VC\INCLUDE\ASSERT.H
C:\PROGRAM FILES (X86)\MICROSOFT VISUAL STUDIO 11.0\VC\INCLUDE\CRTDEFS.H
C:\PROGRAM FILES (X86)\MICROSOFT VISUAL STUDIO 11.0\VC\INCLUDE\SAL.H
C:\PROGRAM FILES (X86)\MICROSOFT VISUAL STUDIO 11.0\VC\INCLUDE\CONCURRENCYSAL.H
C:\PROGRAM FILES (X86)\MICROSOFT VISUAL STUDIO 11.0\VC\INCLUDE\VADEFS.H
C:\PROGRAM FILES (X86)\MICROSOFT VISUAL STUDIO 11.0\VC\INCLUDE\FLOAT.H
C:\PROGRAM FILES (X86)\MICROSOFT VISUAL STUDIO 11.0\VC\INCLUDE\CRTWRN.H
C:\PROGRAM FILES (X86)\MICROSOFT VISUAL STUDIO 11.0\VC\INCLUDE\MATH.H
C:\PROGRAM FILES (X86)\MICROSOFT VISUAL STUDIO 11.0\VC\INCLUDE\STRING.H
C:\PROGRAM FILES (X86)\MICROSOFT VISUAL STUDIO 11.0\VC\INCLUDE\STDARG.H
C:\PROGRAM FILES (X86)\MICROSOFT VISUAL STUDIO 11.0\VC\INCLUDE\STDIO.H
C:\PROGRAM FILES (X86)\MICROSOFT VISUAL STUDIO 11.0\VC\INCLUDE\SWPRINTF.INL
C:\PROGRAM FILES (X86)\MICROSOFT VISUAL STUDIO 11.0\VC\INCLUDE\STDLIB.H
C:\PROGRAM FILES (X86)\MICROSOFT VISUAL STUDIO 11.0\VC\INCLUDE\LIMITS.H
C:\PROGRAM FILES (X86)\MICROSOFT VISUAL STUDIO 11.0\VC\INCLUDE\TIME.H
C:\PROGRAM FILES (X86)\MICROSOFT VISUAL STUDIO 11.0\VC\INCLUDE\WTIME.INL
C:\PROGRAM FILES (X86)\MICROSOFT VISUAL STUDIO 11.0\VC\INCLUDE\TIME.INL
C:\PROGRAM FILES (X86)\MICROSOFT VISUAL STUDIO 11.0\VC\INCLUDE\STDINT.H
C:\PROGRAM FILES (X86)\WINDOWS KITS\8.0\INCLUDE\UM\WINDOWS.H
C:\PROGRAM FILES (X86)\WINDOWS KITS\8.0\INCLUDE\SHARED\WINAPIFAMILY.H
C:\PROGRAM FILES (X86)\WINDOWS KITS\8.0\INCLUDE\SHARED\SDKDDKVER.H
C:\PROGRAM FILES (X86)\MICROSOFT VISUAL STUDIO 11.0\VC\INCLUDE\EXCPT.H
C:\PROGRAM FILES (X86)\WINDOWS KITS\8.0\INCLUDE\SHARED\WINDEF.H
C:\PROGRAM FILES (X86)\WINDOWS KITS\8.0\INCLUDE\SHARED\MINWINDEF.H
C:\PROGRAM FILES (X86)\WINDOWS KITS\8.0\INCLUDE\SHARED\SPECSTRINGS.H
C:\PROGRAM FILES (X86)\WINDOWS KITS\8.0\INCLUDE\SHARED\SPECSTRINGS_STRICT.H
C:\PROGRAM FILES (X86)\WINDOWS KITS\8.0\INCLUDE\SHARED\SPECSTRINGS_UNDEF.H
C:\PROGRAM FILES (X86)\WINDOWS KITS\8.0\INCLUDE\SHARED\DRIVERSPECS.H
C:\PROGRAM FILES (X86)\WINDOWS KITS\8.0\INCLUDE\SHARED\SDV_DRIVERSPECS.H
C:\PROGRAM FILES (X86)\WINDOWS KITS\8.0\INCLUDE\UM\WINNT.H
C:\PROGRAM FILES (X86)\MICROSOFT VISUAL STUDIO 11.0\VC\INCLUDE\CTYPE.H
C:\PROGRAM FILES (X86)\WINDOWS KITS\8.0\INCLUDE\SHARED\KERNELSPECS.H
C:\PROGRAM FILES (X86)\WINDOWS KITS\8.0\INCLUDE\SHARED\BASETSD.H
C:\PROGRAM FILES (X86)\WINDOWS KITS\8.0\INCLUDE\SHARED\GUIDDEF.H
C:\PROGRAM FILES (X86)\WINDOWS KITS\8.0\INCLUDE\SHARED\PSHPACK4.H
C:\PROGRAM FILES (X86)\WINDOWS KITS\8.0\INCLUDE\SHARED\POPPACK.H
C:\PROGRAM FILES (X86)\WINDOWS KITS\8.0\INCLUDE\SHARED\PSHPACK2.H
C:\PROGRAM FILES (X86)\WINDOWS KITS\8.0\INCLUDE\SHARED\PSHPACK8.H
C:\PROGRAM FILES (X86)\WINDOWS KITS\8.0\INCLUDE\SHARED\APISET.H
C:\PROGRAM FILES (X86)\WINDOWS KITS\8.0\INCLUDE\SHARED\KTMTYPES.H
C:\PROGRAM FILES (X86)\WINDOWS KITS\8.0\INCLUDE\UM\WINBASE.H
C:\PROGRAM FILES (X86)\WINDOWS KITS\8.0\INCLUDE\SHARED\APISETCCONV.H
C:\PROGRAM FILES (X86)\WINDOWS KITS\8.0\INCLUDE\UM\MINWINBASE.H
C:\PROGRAM FILES (X86)\WINDOWS KITS\8.0\INCLUDE\UM\PROCESSENV.H
C:\PROGRAM FILES (X86)\WINDOWS KITS\8.0\INCLUDE\UM\FILEAPI.H
C:\PROGRAM FILES (X86)\WINDOWS KITS\8.0\INCLUDE\UM\DEBUGAPI.H
C:\PROGRAM FILES (X86)\WINDOWS KITS\8.0\INCLUDE\UM\UTILAPISET.H
C:\PROGRAM FILES (X86)\WINDOWS KITS\8.0\INCLUDE\UM\HANDLEAPI.H
C:\PROGRAM FILES (X86)\WINDOWS KITS\8.0\INCLUDE\UM\ERRHANDLINGAPI.H
C:\PROGRAM FILES (X86)\WINDOWS KITS\8.0\INCLUDE\UM\FIBERSAPI.H
C:\PROGRAM FILES (X86)\WINDOWS KITS\8.0\INCLUDE\UM\NAMEDPIPEAPI.H
C:\PROGRAM FILES (X86)\WINDOWS KITS\8.0\INCLUDE\UM\PROFILEAPI.H
C:\PROGRAM FILES (X86)\WINDOWS KITS\8.0\INCLUDE\UM\HEAPAPI.H
C:\PROGRAM FILES (X86)\WINDOWS KITS\8.0\INCLUDE\UM\IOAPISET.H
C:\PROGRAM FILES (X86)\WINDOWS KITS\8.0\INCLUDE\UM\SYNCHAPI.H
C:\PROGRAM FILES (X86)\WINDOWS KITS\8.0\INCLUDE\UM\INTERLOCKEDAPI.H
C:\PROGRAM FILES (X86)\WINDOWS KITS\8.0\INCLUDE\UM\PROCESSTHREADSAPI.H
C:\PROGRAM FILES (X86)\WINDOWS KITS\8.0\INCLUDE\UM\SYSINFOAPI.H
C:\PROGRAM FILES (X86)\WINDOWS KITS\8.0\INCLUDE\UM\MEMORYAPI.H
C:\PROGRAM FILES (X86)\WINDOWS KITS\8.0\INCLUDE\UM\THREADPOOLLEGACYAPISET.H
C:\PROGRAM FILES (X86)\WINDOWS KITS\8.0\INCLUDE\UM\THREADPOOLAPISET.H
C:\PROGRAM FILES (X86)\WINDOWS KITS\8.0\INCLUDE\UM\BEMAPISET.H
C:\PROGRAM FILES (X86)\WINDOWS KITS\8.0\INCLUDE\UM\JOBAPI.H
C:\PROGRAM FILES (X86)\WINDOWS KITS\8.0\INCLUDE\UM\WOW64APISET.H
C:\PROGRAM FILES (X86)\WINDOWS KITS\8.0\INCLUDE\UM\LIBLOADERAPI.H
C:\PROGRAM FILES (X86)\WINDOWS KITS\8.0\INCLUDE\UM\SECURITYBASEAPI.H
C:\PROGRAM FILES (X86)\WINDOWS KITS\8.0\INCLUDE\UM\NAMESPACEAPI.H
C:\PROGRAM FILES (X86)\WINDOWS KITS\8.0\INCLUDE\UM\SYSTEMTOPOLOGYAPI.H
C:\PROGRAM FILES (X86)\WINDOWS KITS\8.0\INCLUDE\UM\PROCESSTOPOLOGYAPI.H
C:\PROGRAM FILES (X86)\WINDOWS KITS\8.0\INCLUDE\UM\SECURITYAPPCONTAINER.H
C:\PROGRAM FILES (X86)\WINDOWS KITS\8.0\INCLUDE\UM\REALTIMEAPISET.H
C:\PROGRAM FILES (X86)\WINDOWS KITS\8.0\INCLUDE\SHARED\WINERROR.H
C:\PROGRAM FILES (X86)\WINDOWS KITS\8.0\INCLUDE\UM\TIMEZONEAPI.H
C:\PROGRAM FILES (X86)\WINDOWS KITS\8.0\INCLUDE\UM\WINGDI.H
C:\PROGRAM FILES (X86)\WINDOWS KITS\8.0\INCLUDE\SHARED\PSHPACK1.H
C:\PROGRAM FILES (X86)\WINDOWS KITS\8.0\INCLUDE\UM\WINUSER.H
C:\PROGRAM FILES (X86)\WINDOWS KITS\8.0\INCLUDE\SHARED\TVOUT.H
C:\PROGRAM FILES (X86)\WINDOWS KITS\8.0\INCLUDE\UM\WINNLS.H
C:\PROGRAM FILES (X86)\WINDOWS KITS\8.0\INCLUDE\UM\DATETIMEAPI.H
C:\PROGRAM FILES (X86)\WINDOWS KITS\8.0\INCLUDE\UM\STRINGAPISET.H
C:\PROGRAM FILES (X86)\WINDOWS KITS\8.0\INCLUDE\UM\WINCON.H
C:\PROGRAM FILES (X86)\WINDOWS KITS\8.0\INCLUDE\UM\CONSOLEAPI.H
C:\PROGRAM FILES (X86)\WINDOWS KITS\8.0\INCLUDE\UM\WINVER.H
C:\PROGRAM FILES (X86)\WINDOWS KITS\8.0\INCLUDE\UM\VERRSRC.H
C:\PROGRAM FILES (X86)\WINDOWS KITS\8.0\INCLUDE\UM\WINREG.H
C:\PROGRAM FILES (X86)\WINDOWS KITS\8.0\INCLUDE\UM\REASON.H
C:\PROGRAM FILES (X86)\WINDOWS KITS\8.0\INCLUDE\UM\WINNETWK.H
C:\PROGRAM FILES (X86)\WINDOWS KITS\8.0\INCLUDE\SHARED\WNNC.H
C:\PROGRAM FILES (X86)\WINDOWS KITS\8.0\INCLUDE\SHARED\CDERR.H
C:\PROGRAM FILES (X86)\WINDOWS KITS\8.0\INCLUDE\UM\DDE.H
C:\PROGRAM FILES (X86)\WINDOWS KITS\8.0\INCLUDE\UM\DDEML.H
C:\PROGRAM FILES (X86)\WINDOWS KITS\8.0\INCLUDE\UM\DLGS.H
C:\PROGRAM FILES (X86)\WINDOWS KITS\8.0\INCLUDE\UM\LZEXPAND.H
C:\PROGRAM FILES (X86)\WINDOWS KITS\8.0\INCLUDE\UM\MMSYSTEM.H
C:\PROGRAM FILES (X86)\WINDOWS KITS\8.0\INCLUDE\UM\MMSYSCOM.H
C:\PROGRAM FILES (X86)\WINDOWS KITS\8.0\INCLUDE\UM\MCIAPI.H
C:\PROGRAM FILES (X86)\WINDOWS KITS\8.0\INCLUDE\UM\MMISCAPI.H
C:\PROGRAM FILES (X86)\WINDOWS KITS\8.0\INCLUDE\UM\MMISCAPI2.H
C:\PROGRAM FILES (X86)\WINDOWS KITS\8.0\INCLUDE\UM\PLAYSOUNDAPI.H
C:\PROGRAM FILES (X86)\WINDOWS KITS\8.0\INCLUDE\UM\MMEAPI.H
C:\PROGRAM FILES (X86)\WINDOWS KITS\8.0\INCLUDE\UM\TIMEAPI.H
C:\PROGRAM FILES (X86)\WINDOWS KITS\8.0\INCLUDE\UM\JOYSTICKAPI.H
C:\PROGRAM FILES (X86)\WINDOWS KITS\8.0\INCLUDE\UM\NB30.H
C:\PROGRAM FILES (X86)\WINDOWS KITS\8.0\INCLUDE\SHARED\RPC.H
C:\PROGRAM FILES (X86)\WINDOWS KITS\8.0\INCLUDE\SHARED\RPCDCE.H
C:\PROGRAM FILES (X86)\WINDOWS KITS\8.0\INCLUDE\SHARED\RPCDCEP.H
C:\PROGRAM FILES (X86)\WINDOWS KITS\8.0\INCLUDE\UM\RPCNSI.H
C:\PROGRAM FILES (X86)\WINDOWS KITS\8.0\INCLUDE\SHARED\RPCNTERR.H
C:\PROGRAM FILES (X86)\WINDOWS KITS\8.0\INCLUDE\SHARED\RPCASYNC.H
C:\PROGRAM FILES (X86)\WINDOWS KITS\8.0\INCLUDE\UM\SHELLAPI.H
C:\PROGRAM FILES (X86)\WINDOWS KITS\8.0\INCLUDE\UM\WINPERF.H
C:\PROGRAM FILES (X86)\WINDOWS KITS\8.0\INCLUDE\UM\WINSOCK.H
C:\PROGRAM FILES (X86)\WINDOWS KITS\8.0\INCLUDE\UM\WINCRYPT.H
C:\PROGRAM FILES (X86)\WINDOWS KITS\8.0\INCLUDE\SHARED\BCRYPT.H
C:\PROGRAM FILES (X86)\WINDOWS KITS\8.0\INCLUDE\UM\NCRYPT.H
C:\PROGRAM FILES (X86)\WINDOWS KITS\8.0\INCLUDE\UM\DPAPI.H
C:\PROGRAM FILES (X86)\WINDOWS KITS\8.0\INCLUDE\UM\WINEFS.H
C:\PROGRAM FILES (X86)\WINDOWS KITS\8.0\INCLUDE\UM\WINSCARD.H
C:\PROGRAM FILES (X86)\WINDOWS KITS\8.0\INCLUDE\SHARED\WTYPES.H
C:\PROGRAM FILES (X86)\WINDOWS KITS\8.0\INCLUDE\SHARED\RPCNDR.H
C:\PROGRAM FILES (X86)\WINDOWS KITS\8.0\INCLUDE\UM\RPCNSIP.H
C:\PROGRAM FILES (X86)\WINDOWS KITS\8.0\INCLUDE\SHARED\RPCSAL.H
C:\PROGRAM FILES (X86)\WINDOWS KITS\8.0\INCLUDE\SHARED\WTYPESBASE.H
C:\PROGRAM FILES (X86)\WINDOWS KITS\8.0\INCLUDE\UM\WINIOCTL.H
C:\PROGRAM FILES (X86)\WINDOWS KITS\8.0\INCLUDE\SHARED\WINSMCRD.H
C:\PROGRAM FILES (X86)\WINDOWS KITS\8.0\INCLUDE\UM\WINSPOOL.H
C:\PROGRAM FILES (X86)\WINDOWS KITS\8.0\INCLUDE\UM\PRSHT.H
C:\PROGRAM FILES (X86)\WINDOWS KITS\8.0\INCLUDE\UM\OLE2.H
C:\PROGRAM FILES (X86)\WINDOWS KITS\8.0\INCLUDE\UM\OBJBASE.H
C:\PROGRAM FILES (X86)\WINDOWS KITS\8.0\INCLUDE\UM\COMBASEAPI.H
C:\PROGRAM FILES (X86)\WINDOWS KITS\8.0\INCLUDE\UM\UNKNWNBASE.H
C:\PROGRAM FILES (X86)\WINDOWS KITS\8.0\INCLUDE\UM\OBJIDLBASE.H
C:\PROGRAM FILES (X86)\WINDOWS KITS\8.0\INCLUDE\UM\CGUID.H
C:\PROGRAM FILES (X86)\WINDOWS KITS\8.0\INCLUDE\UM\OBJIDL.H
C:\PROGRAM FILES (X86)\WINDOWS KITS\8.0\INCLUDE\UM\UNKNWN.H
C:\PROGRAM FILES (X86)\WINDOWS KITS\8.0\INCLUDE\UM\URLMON.H
C:\PROGRAM FILES (X86)\WINDOWS KITS\8.0\INCLUDE\UM\OLEIDL.H
C:\PROGRAM FILES (X86)\WINDOWS KITS\8.0\INCLUDE\UM\SERVPROV.H
C:\PROGRAM FILES (X86)\WINDOWS KITS\8.0\INCLUDE\UM\MSXML.H
C:\PROGRAM FILES (X86)\WINDOWS KITS\8.0\INCLUDE\UM\OAIDL.H
C:\PROGRAM FILES (X86)\WINDOWS KITS\8.0\INCLUDE\UM\PROPIDL.H
C:\PROGRAM FILES (X86)\WINDOWS KITS\8.0\INCLUDE\UM\OLEAUTO.H
C:\PROGRAM FILES (X86)\WINDOWS KITS\8.0\INCLUDE\UM\COMMDLG.H
C:\PROGRAM FILES (X86)\WINDOWS KITS\8.0\INCLUDE\SHARED\STRALIGN.H
C:\PROGRAM FILES (X86)\WINDOWS KITS\8.0\INCLUDE\UM\WINSVC.H
C:\PROGRAM FILES (X86)\WINDOWS KITS\8.0\INCLUDE\UM\MCX.H
C:\PROGRAM FILES (X86)\WINDOWS KITS\8.0\INCLUDE\UM\IMM.H
C:\PROGRAM FILES (X86)\WINDOWS KITS\8.0\INCLUDE\UM\IME_CMODES.H
C:\PROGRAM FILES (X86)\WINDOWS KITS\8.0\INCLUDE\UM\WINSOCK2.H
C:\PROGRAM FILES (X86)\WINDOWS KITS\8.0\INCLUDE\SHARED\WS2DEF.H
C:\PROGRAM FILES (X86)\WINDOWS KITS\8.0\INCLUDE\SHARED\INADDR.H
C:\PROGRAM FILES (X86)\WINDOWS KITS\8.0\INCLUDE\SHARED\QOS.H
^C:\USERS\SCOTT\DROPBOX\WILDYETILABS\HEXAGONGAME-13\CPP\HEXAGON\COCOS2D\COCOS\AUDIO\WIN32\SIMPLEAUDIOENGINE.CPP
C:\USERS\SCOTT\DROPBOX\WILDYETILABS\HEXAGONGAME-13\CPP\HEXAGON\COCOS2D\COCOS\AUDIO\INCLUDE\SIMPLEAUDIOENGINE.H
C:\PROGRAM FILES (X86)\MICROSOFT VISUAL STUDIO 11.0\VC\INCLUDE\STDDEF.H
C:\PROGRAM FILES (X86)\MICROSOFT VISUAL STUDIO 11.0\VC\INCLUDE\CRTDEFS.H
C:\PROGRAM FILES (X86)\MICROSOFT VISUAL STUDIO 11.0\VC\INCLUDE\SAL.H
C:\PROGRAM FILES (X86)\MICROSOFT VISUAL STUDIO 11.0\VC\INCLUDE\CONCURRENCYSAL.H
C:\PROGRAM FILES (X86)\MICROSOFT VISUAL STUDIO 11.0\VC\INCLUDE\VADEFS.H
C:\USERS\SCOTT\DROPBOX\WILDYETILABS\HEXAGONGAME-13\CPP\HEXAGON\COCOS2D\COCOS\AUDIO\INCLUDE\EXPORT.H
C:\PROGRAM FILES (X86)\MICROSOFT VISUAL STUDIO 11.0\VC\INCLUDE\TYPEINFO
C:\PROGRAM FILES (X86)\MICROSOFT VISUAL STUDIO 11.0\VC\INCLUDE\XSTDDEF
C:\PROGRAM FILES (X86)\MICROSOFT VISUAL STUDIO 11.0\VC\INCLUDE\YVALS.H
C:\PROGRAM FILES (X86)\MICROSOFT VISUAL STUDIO 11.0\VC\INCLUDE\XKEYCHECK.H
C:\PROGRAM FILES (X86)\MICROSOFT VISUAL STUDIO 11.0\VC\INCLUDE\USE_ANSI.H
C:\PROGRAM FILES (X86)\MICROSOFT VISUAL STUDIO 11.0\VC\INCLUDE\XTR1COMMON
C:\PROGRAM FILES (X86)\MICROSOFT VISUAL STUDIO 11.0\VC\INCLUDE\STDLIB.H
C:\PROGRAM FILES (X86)\MICROSOFT VISUAL STUDIO 11.0\VC\INCLUDE\LIMITS.H
C:\PROGRAM FILES (X86)\MICROSOFT VISUAL STUDIO 11.0\VC\INCLUDE\CSTDDEF
C:\PROGRAM FILES (X86)\MICROSOFT VISUAL STUDIO 11.0\VC\INCLUDE\STRING.H
C:\PROGRAM FILES (X86)\MICROSOFT VISUAL STUDIO 11.0\VC\INCLUDE\EXCEPTION
C:\PROGRAM FILES (X86)\MICROSOFT VISUAL STUDIO 11.0\VC\INCLUDE\EH.H
C:\PROGRAM FILES (X86)\MICROSOFT VISUAL STUDIO 11.0\VC\INCLUDE\MALLOC.H
C:\PROGRAM FILES (X86)\MICROSOFT VISUAL STUDIO 11.0\VC\INCLUDE\CTYPE.H
C:\PROGRAM FILES (X86)\MICROSOFT VISUAL STUDIO 11.0\VC\INCLUDE\MAP
C:\PROGRAM FILES (X86)\MICROSOFT VISUAL STUDIO 11.0\VC\INCLUDE\XTREE
C:\PROGRAM FILES (X86)\MICROSOFT VISUAL STUDIO 11.0\VC\INCLUDE\XMEMORY
C:\PROGRAM FILES (X86)\MICROSOFT VISUAL STUDIO 11.0\VC\INCLUDE\XMEMORY0
C:\PROGRAM FILES (X86)\MICROSOFT VISUAL STUDIO 11.0\VC\INCLUDE\CSTDLIB
C:\PROGRAM FILES (X86)\MICROSOFT VISUAL STUDIO 11.0\VC\INCLUDE\LIMITS
C:\PROGRAM FILES (X86)\MICROSOFT VISUAL STUDIO 11.0\VC\INCLUDE\YMATH.H
C:\PROGRAM FILES (X86)\MICROSOFT VISUAL STUDIO 11.0\VC\INCLUDE\CFLOAT
C:\PROGRAM FILES (X86)\MICROSOFT VISUAL STUDIO 11.0\VC\INCLUDE\FLOAT.H
C:\PROGRAM FILES (X86)\MICROSOFT VISUAL STUDIO 11.0\VC\INCLUDE\CRTWRN.H
C:\PROGRAM FILES (X86)\MICROSOFT VISUAL STUDIO 11.0\VC\INCLUDE\CLIMITS
C:\PROGRAM FILES (X86)\MICROSOFT VISUAL STUDIO 11.0\VC\INCLUDE\CMATH
C:\PROGRAM FILES (X86)\MICROSOFT VISUAL STUDIO 11.0\VC\INCLUDE\MATH.H
C:\PROGRAM FILES (X86)\MICROSOFT VISUAL STUDIO 11.0\VC\INCLUDE\XTGMATH.H
C:\PROGRAM FILES (X86)\MICROSOFT VISUAL STUDIO 11.0\VC\INCLUDE\CWCHAR
C:\PROGRAM FILES (X86)\MICROSOFT VISUAL STUDIO 11.0\VC\INCLUDE\WCHAR.H
C:\PROGRAM FILES (X86)\MICROSOFT VISUAL STUDIO 11.0\VC\INCLUDE\SWPRINTF.INL
C:\PROGRAM FILES (X86)\MICROSOFT VISUAL STUDIO 11.0\VC\INCLUDE\WTIME.INL
C:\PROGRAM FILES (X86)\MICROSOFT VISUAL STUDIO 11.0\VC\INCLUDE\NEW
C:\PROGRAM FILES (X86)\MICROSOFT VISUAL STUDIO 11.0\VC\INCLUDE\XUTILITY
C:\PROGRAM FILES (X86)\MICROSOFT VISUAL STUDIO 11.0\VC\INCLUDE\UTILITY
C:\PROGRAM FILES (X86)\MICROSOFT VISUAL STUDIO 11.0\VC\INCLUDE\IOSFWD
C:\PROGRAM FILES (X86)\MICROSOFT VISUAL STUDIO 11.0\VC\INCLUDE\CSTDIO
C:\PROGRAM FILES (X86)\MICROSOFT VISUAL STUDIO 11.0\VC\INCLUDE\STDIO.H
C:\PROGRAM FILES (X86)\MICROSOFT VISUAL STUDIO 11.0\VC\INCLUDE\CSTRING
C:\PROGRAM FILES (X86)\MICROSOFT VISUAL STUDIO 11.0\VC\INCLUDE\CRTDBG.H
C:\PROGRAM FILES (X86)\MICROSOFT VISUAL STUDIO 11.0\VC\INCLUDE\TYPE_TRAITS
C:\PROGRAM FILES (X86)\MICROSOFT VISUAL STUDIO 11.0\VC\INCLUDE\XREFWRAP
C:\PROGRAM FILES (X86)\MICROSOFT VISUAL STUDIO 11.0\VC\INCLUDE\XATOMIC0.H
C:\PROGRAM FILES (X86)\MICROSOFT VISUAL STUDIO 11.0\VC\INCLUDE\INTRIN.H
C:\PROGRAM FILES (X86)\MICROSOFT VISUAL STUDIO 11.0\VC\INCLUDE\SETJMP.H
C:\PROGRAM FILES (X86)\MICROSOFT VISUAL STUDIO 11.0\VC\INCLUDE\IMMINTRIN.H
C:\PROGRAM FILES (X86)\MICROSOFT VISUAL STUDIO 11.0\VC\INCLUDE\WMMINTRIN.H
C:\PROGRAM FILES (X86)\MICROSOFT VISUAL STUDIO 11.0\VC\INCLUDE\NMMINTRIN.H
C:\PROGRAM FILES (X86)\MICROSOFT VISUAL STUDIO 11.0\VC\INCLUDE\SMMINTRIN.H
C:\PROGRAM FILES (X86)\MICROSOFT VISUAL STUDIO 11.0\VC\INCLUDE\TMMINTRIN.H
C:\PROGRAM FILES (X86)\MICROSOFT VISUAL STUDIO 11.0\VC\INCLUDE\PMMINTRIN.H
C:\PROGRAM FILES (X86)\MICROSOFT VISUAL STUDIO 11.0\VC\INCLUDE\EMMINTRIN.H
C:\PROGRAM FILES (X86)\MICROSOFT VISUAL STUDIO 11.0\VC\INCLUDE\XMMINTRIN.H
C:\PROGRAM FILES (X86)\MICROSOFT VISUAL STUDIO 11.0\VC\INCLUDE\MMINTRIN.H
C:\PROGRAM FILES (X86)\MICROSOFT VISUAL STUDIO 11.0\VC\INCLUDE\AMMINTRIN.H
C:\PROGRAM FILES (X86)\MICROSOFT VISUAL STUDIO 11.0\VC\INCLUDE\MM3DNOW.H
C:\PROGRAM FILES (X86)\MICROSOFT VISUAL STUDIO 11.0\VC\INCLUDE\STDEXCEPT
C:\PROGRAM FILES (X86)\MICROSOFT VISUAL STUDIO 11.0\VC\INCLUDE\XSTRING
C:\USERS\SCOTT\DROPBOX\WILDYETILABS\HEXAGONGAME-13\CPP\HEXAGON\COCOS2D\COCOS\AUDIO\WIN32\MCIPLAYER.H
C:\USERS\SCOTT\DROPBOX\WILDYETILABS\HEXAGONGAME-13\CPP\HEXAGON\COCOS2D\COCOS\2D\PLATFORM\WIN32\CCSTDC.H
C:\USERS\SCOTT\DROPBOX\WILDYETILABS\HEXAGONGAME-13\CPP\HEXAGON\COCOS2D\COCOS\BASE\CCPLATFORMCONFIG.H
C:\USERS\SCOTT\DROPBOX\WILDYETILABS\HEXAGONGAME-13\CPP\HEXAGON\COCOS2D\COCOS\BASE\CCPLATFORMMACROS.H
C:\USERS\SCOTT\DROPBOX\WILDYETILABS\HEXAGONGAME-13\CPP\HEXAGON\COCOS2D\COCOS\2D\CCCONFIG.H
C:\USERS\SCOTT\DROPBOX\WILDYETILABS\HEXAGONGAME-13\CPP\HEXAGON\COCOS2D\COCOS\2D\PLATFORM\WIN32\CCPLATFORMDEFINE.H
C:\PROGRAM FILES (X86)\MICROSOFT VISUAL STUDIO 11.0\VC\INCLUDE\ASSERT.H
C:\PROGRAM FILES (X86)\MICROSOFT VISUAL STUDIO 11.0\VC\INCLUDE\STDARG.H
C:\PROGRAM FILES (X86)\MICROSOFT VISUAL STUDIO 11.0\VC\INCLUDE\TIME.H
C:\PROGRAM FILES (X86)\MICROSOFT VISUAL STUDIO 11.0\VC\INCLUDE\TIME.INL
C:\PROGRAM FILES (X86)\MICROSOFT VISUAL STUDIO 11.0\VC\INCLUDE\STDINT.H
C:\PROGRAM FILES (X86)\WINDOWS KITS\8.0\INCLUDE\UM\WINDOWS.H
C:\PROGRAM FILES (X86)\WINDOWS KITS\8.0\INCLUDE\SHARED\WINAPIFAMILY.H
C:\PROGRAM FILES (X86)\WINDOWS KITS\8.0\INCLUDE\SHARED\SDKDDKVER.H
C:\PROGRAM FILES (X86)\MICROSOFT VISUAL STUDIO 11.0\VC\INCLUDE\EXCPT.H
C:\PROGRAM FILES (X86)\WINDOWS KITS\8.0\INCLUDE\SHARED\WINDEF.H
C:\PROGRAM FILES (X86)\WINDOWS KITS\8.0\INCLUDE\SHARED\MINWINDEF.H
C:\PROGRAM FILES (X86)\WINDOWS KITS\8.0\INCLUDE\SHARED\SPECSTRINGS.H
C:\PROGRAM FILES (X86)\WINDOWS KITS\8.0\INCLUDE\SHARED\SPECSTRINGS_STRICT.H
C:\PROGRAM FILES (X86)\WINDOWS KITS\8.0\INCLUDE\SHARED\SPECSTRINGS_UNDEF.H
C:\PROGRAM FILES (X86)\WINDOWS KITS\8.0\INCLUDE\SHARED\DRIVERSPECS.H
C:\PROGRAM FILES (X86)\WINDOWS KITS\8.0\INCLUDE\SHARED\SDV_DRIVERSPECS.H
C:\PROGRAM FILES (X86)\WINDOWS KITS\8.0\INCLUDE\UM\WINNT.H
C:\PROGRAM FILES (X86)\WINDOWS KITS\8.0\INCLUDE\SHARED\KERNELSPECS.H
C:\PROGRAM FILES (X86)\WINDOWS KITS\8.0\INCLUDE\SHARED\BASETSD.H
C:\PROGRAM FILES (X86)\WINDOWS KITS\8.0\INCLUDE\SHARED\GUIDDEF.H
C:\PROGRAM FILES (X86)\WINDOWS KITS\8.0\INCLUDE\SHARED\PSHPACK4.H
C:\PROGRAM FILES (X86)\WINDOWS KITS\8.0\INCLUDE\SHARED\POPPACK.H
C:\PROGRAM FILES (X86)\WINDOWS KITS\8.0\INCLUDE\SHARED\PSHPACK2.H
C:\PROGRAM FILES (X86)\WINDOWS KITS\8.0\INCLUDE\SHARED\PSHPACK8.H
C:\PROGRAM FILES (X86)\WINDOWS KITS\8.0\INCLUDE\SHARED\APISET.H
C:\PROGRAM FILES (X86)\WINDOWS KITS\8.0\INCLUDE\SHARED\KTMTYPES.H
C:\PROGRAM FILES (X86)\WINDOWS KITS\8.0\INCLUDE\UM\WINBASE.H
C:\PROGRAM FILES (X86)\WINDOWS KITS\8.0\INCLUDE\SHARED\APISETCCONV.H
C:\PROGRAM FILES (X86)\WINDOWS KITS\8.0\INCLUDE\UM\MINWINBASE.H
C:\PROGRAM FILES (X86)\WINDOWS KITS\8.0\INCLUDE\UM\PROCESSENV.H
C:\PROGRAM FILES (X86)\WINDOWS KITS\8.0\INCLUDE\UM\FILEAPI.H
C:\PROGRAM FILES (X86)\WINDOWS KITS\8.0\INCLUDE\UM\DEBUGAPI.H
C:\PROGRAM FILES (X86)\WINDOWS KITS\8.0\INCLUDE\UM\UTILAPISET.H
C:\PROGRAM FILES (X86)\WINDOWS KITS\8.0\INCLUDE\UM\HANDLEAPI.H
C:\PROGRAM FILES (X86)\WINDOWS KITS\8.0\INCLUDE\UM\ERRHANDLINGAPI.H
C:\PROGRAM FILES (X86)\WINDOWS KITS\8.0\INCLUDE\UM\FIBERSAPI.H
C:\PROGRAM FILES (X86)\WINDOWS KITS\8.0\INCLUDE\UM\NAMEDPIPEAPI.H
C:\PROGRAM FILES (X86)\WINDOWS KITS\8.0\INCLUDE\UM\PROFILEAPI.H
C:\PROGRAM FILES (X86)\WINDOWS KITS\8.0\INCLUDE\UM\HEAPAPI.H
C:\PROGRAM FILES (X86)\WINDOWS KITS\8.0\INCLUDE\UM\IOAPISET.H
C:\PROGRAM FILES (X86)\WINDOWS KITS\8.0\INCLUDE\UM\SYNCHAPI.H
C:\PROGRAM FILES (X86)\WINDOWS KITS\8.0\INCLUDE\UM\INTERLOCKEDAPI.H
C:\PROGRAM FILES (X86)\WINDOWS KITS\8.0\INCLUDE\UM\PROCESSTHREADSAPI.H
C:\PROGRAM FILES (X86)\WINDOWS KITS\8.0\INCLUDE\UM\SYSINFOAPI.H
C:\PROGRAM FILES (X86)\WINDOWS KITS\8.0\INCLUDE\UM\MEMORYAPI.H
C:\PROGRAM FILES (X86)\WINDOWS KITS\8.0\INCLUDE\UM\THREADPOOLLEGACYAPISET.H
C:\PROGRAM FILES (X86)\WINDOWS KITS\8.0\INCLUDE\UM\THREADPOOLAPISET.H
C:\PROGRAM FILES (X86)\WINDOWS KITS\8.0\INCLUDE\UM\BEMAPISET.H
C:\PROGRAM FILES (X86)\WINDOWS KITS\8.0\INCLUDE\UM\JOBAPI.H
C:\PROGRAM FILES (X86)\WINDOWS KITS\8.0\INCLUDE\UM\WOW64APISET.H
C:\PROGRAM FILES (X86)\WINDOWS KITS\8.0\INCLUDE\UM\LIBLOADERAPI.H
C:\PROGRAM FILES (X86)\WINDOWS KITS\8.0\INCLUDE\UM\SECURITYBASEAPI.H
C:\PROGRAM FILES (X86)\WINDOWS KITS\8.0\INCLUDE\UM\NAMESPACEAPI.H
C:\PROGRAM FILES (X86)\WINDOWS KITS\8.0\INCLUDE\UM\SYSTEMTOPOLOGYAPI.H
C:\PROGRAM FILES (X86)\WINDOWS KITS\8.0\INCLUDE\UM\PROCESSTOPOLOGYAPI.H
C:\PROGRAM FILES (X86)\WINDOWS KITS\8.0\INCLUDE\UM\SECURITYAPPCONTAINER.H
C:\PROGRAM FILES (X86)\WINDOWS KITS\8.0\INCLUDE\UM\REALTIMEAPISET.H
C:\PROGRAM FILES (X86)\WINDOWS KITS\8.0\INCLUDE\SHARED\WINERROR.H
C:\PROGRAM FILES (X86)\WINDOWS KITS\8.0\INCLUDE\UM\TIMEZONEAPI.H
C:\PROGRAM FILES (X86)\WINDOWS KITS\8.0\INCLUDE\UM\WINGDI.H
C:\PROGRAM FILES (X86)\WINDOWS KITS\8.0\INCLUDE\SHARED\PSHPACK1.H
C:\PROGRAM FILES (X86)\WINDOWS KITS\8.0\INCLUDE\UM\WINUSER.H
C:\PROGRAM FILES (X86)\WINDOWS KITS\8.0\INCLUDE\SHARED\TVOUT.H
C:\PROGRAM FILES (X86)\WINDOWS KITS\8.0\INCLUDE\UM\WINNLS.H
C:\PROGRAM FILES (X86)\WINDOWS KITS\8.0\INCLUDE\UM\DATETIMEAPI.H
C:\PROGRAM FILES (X86)\WINDOWS KITS\8.0\INCLUDE\UM\STRINGAPISET.H
C:\PROGRAM FILES (X86)\WINDOWS KITS\8.0\INCLUDE\UM\WINCON.H
C:\PROGRAM FILES (X86)\WINDOWS KITS\8.0\INCLUDE\UM\CONSOLEAPI.H
C:\PROGRAM FILES (X86)\WINDOWS KITS\8.0\INCLUDE\UM\WINVER.H
C:\PROGRAM FILES (X86)\WINDOWS KITS\8.0\INCLUDE\UM\VERRSRC.H
C:\PROGRAM FILES (X86)\WINDOWS KITS\8.0\INCLUDE\UM\WINREG.H
C:\PROGRAM FILES (X86)\WINDOWS KITS\8.0\INCLUDE\UM\REASON.H
C:\PROGRAM FILES (X86)\WINDOWS KITS\8.0\INCLUDE\UM\WINNETWK.H
C:\PROGRAM FILES (X86)\WINDOWS KITS\8.0\INCLUDE\SHARED\WNNC.H
C:\PROGRAM FILES (X86)\WINDOWS KITS\8.0\INCLUDE\SHARED\CDERR.H
C:\PROGRAM FILES (X86)\WINDOWS KITS\8.0\INCLUDE\UM\DDE.H
C:\PROGRAM FILES (X86)\WINDOWS KITS\8.0\INCLUDE\UM\DDEML.H
C:\PROGRAM FILES (X86)\WINDOWS KITS\8.0\INCLUDE\UM\DLGS.H
C:\PROGRAM FILES (X86)\WINDOWS KITS\8.0\INCLUDE\UM\LZEXPAND.H
C:\PROGRAM FILES (X86)\WINDOWS KITS\8.0\INCLUDE\UM\MMSYSTEM.H
C:\PROGRAM FILES (X86)\WINDOWS KITS\8.0\INCLUDE\UM\MMSYSCOM.H
C:\PROGRAM FILES (X86)\WINDOWS KITS\8.0\INCLUDE\UM\MCIAPI.H
C:\PROGRAM FILES (X86)\WINDOWS KITS\8.0\INCLUDE\UM\MMISCAPI.H
C:\PROGRAM FILES (X86)\WINDOWS KITS\8.0\INCLUDE\UM\MMISCAPI2.H
C:\PROGRAM FILES (X86)\WINDOWS KITS\8.0\INCLUDE\UM\PLAYSOUNDAPI.H
C:\PROGRAM FILES (X86)\WINDOWS KITS\8.0\INCLUDE\UM\MMEAPI.H
C:\PROGRAM FILES (X86)\WINDOWS KITS\8.0\INCLUDE\UM\TIMEAPI.H
C:\PROGRAM FILES (X86)\WINDOWS KITS\8.0\INCLUDE\UM\JOYSTICKAPI.H
C:\PROGRAM FILES (X86)\WINDOWS KITS\8.0\INCLUDE\UM\NB30.H
C:\PROGRAM FILES (X86)\WINDOWS KITS\8.0\INCLUDE\SHARED\RPC.H
C:\PROGRAM FILES (X86)\WINDOWS KITS\8.0\INCLUDE\SHARED\RPCDCE.H
C:\PROGRAM FILES (X86)\WINDOWS KITS\8.0\INCLUDE\SHARED\RPCDCEP.H
C:\PROGRAM FILES (X86)\WINDOWS KITS\8.0\INCLUDE\UM\RPCNSI.H
C:\PROGRAM FILES (X86)\WINDOWS KITS\8.0\INCLUDE\SHARED\RPCNTERR.H
C:\PROGRAM FILES (X86)\WINDOWS KITS\8.0\INCLUDE\SHARED\RPCASYNC.H
C:\PROGRAM FILES (X86)\WINDOWS KITS\8.0\INCLUDE\UM\SHELLAPI.H
C:\PROGRAM FILES (X86)\WINDOWS KITS\8.0\INCLUDE\UM\WINPERF.H
C:\PROGRAM FILES (X86)\WINDOWS KITS\8.0\INCLUDE\UM\WINSOCK.H
C:\PROGRAM FILES (X86)\WINDOWS KITS\8.0\INCLUDE\UM\WINCRYPT.H
C:\PROGRAM FILES (X86)\WINDOWS KITS\8.0\INCLUDE\SHARED\BCRYPT.H
C:\PROGRAM FILES (X86)\WINDOWS KITS\8.0\INCLUDE\UM\NCRYPT.H
C:\PROGRAM FILES (X86)\WINDOWS KITS\8.0\INCLUDE\UM\DPAPI.H
C:\PROGRAM FILES (X86)\WINDOWS KITS\8.0\INCLUDE\UM\WINEFS.H
C:\PROGRAM FILES (X86)\WINDOWS KITS\8.0\INCLUDE\UM\WINSCARD.H
C:\PROGRAM FILES (X86)\WINDOWS KITS\8.0\INCLUDE\SHARED\WTYPES.H
C:\PROGRAM FILES (X86)\WINDOWS KITS\8.0\INCLUDE\SHARED\RPCNDR.H
C:\PROGRAM FILES (X86)\WINDOWS KITS\8.0\INCLUDE\UM\RPCNSIP.H
C:\PROGRAM FILES (X86)\WINDOWS KITS\8.0\INCLUDE\SHARED\RPCSAL.H
C:\PROGRAM FILES (X86)\WINDOWS KITS\8.0\INCLUDE\SHARED\WTYPESBASE.H
C:\PROGRAM FILES (X86)\WINDOWS KITS\8.0\INCLUDE\UM\WINIOCTL.H
C:\PROGRAM FILES (X86)\WINDOWS KITS\8.0\INCLUDE\SHARED\WINSMCRD.H
C:\PROGRAM FILES (X86)\WINDOWS KITS\8.0\INCLUDE\UM\WINSPOOL.H
C:\PROGRAM FILES (X86)\WINDOWS KITS\8.0\INCLUDE\UM\PRSHT.H
C:\PROGRAM FILES (X86)\WINDOWS KITS\8.0\INCLUDE\UM\OLE2.H
C:\PROGRAM FILES (X86)\WINDOWS KITS\8.0\INCLUDE\UM\OBJBASE.H
C:\PROGRAM FILES (X86)\WINDOWS KITS\8.0\INCLUDE\UM\COMBASEAPI.H
C:\PROGRAM FILES (X86)\WINDOWS KITS\8.0\INCLUDE\UM\UNKNWNBASE.H
C:\PROGRAM FILES (X86)\WINDOWS KITS\8.0\INCLUDE\UM\OBJIDLBASE.H
C:\PROGRAM FILES (X86)\WINDOWS KITS\8.0\INCLUDE\UM\CGUID.H
C:\PROGRAM FILES (X86)\WINDOWS KITS\8.0\INCLUDE\UM\OBJIDL.H
C:\PROGRAM FILES (X86)\WINDOWS KITS\8.0\INCLUDE\UM\UNKNWN.H
C:\PROGRAM FILES (X86)\WINDOWS KITS\8.0\INCLUDE\UM\URLMON.H
C:\PROGRAM FILES (X86)\WINDOWS KITS\8.0\INCLUDE\UM\OLEIDL.H
C:\PROGRAM FILES (X86)\WINDOWS KITS\8.0\INCLUDE\UM\SERVPROV.H
C:\PROGRAM FILES (X86)\WINDOWS KITS\8.0\INCLUDE\UM\MSXML.H
C:\PROGRAM FILES (X86)\WINDOWS KITS\8.0\INCLUDE\UM\OAIDL.H
C:\PROGRAM FILES (X86)\WINDOWS KITS\8.0\INCLUDE\UM\PROPIDL.H
C:\PROGRAM FILES (X86)\WINDOWS KITS\8.0\INCLUDE\UM\OLEAUTO.H
C:\PROGRAM FILES (X86)\WINDOWS KITS\8.0\INCLUDE\UM\COMMDLG.H
C:\PROGRAM FILES (X86)\WINDOWS KITS\8.0\INCLUDE\SHARED\STRALIGN.H
C:\PROGRAM FILES (X86)\WINDOWS KITS\8.0\INCLUDE\UM\WINSVC.H
C:\PROGRAM FILES (X86)\WINDOWS KITS\8.0\INCLUDE\UM\MCX.H
C:\PROGRAM FILES (X86)\WINDOWS KITS\8.0\INCLUDE\UM\IMM.H
C:\PROGRAM FILES (X86)\WINDOWS KITS\8.0\INCLUDE\UM\IME_CMODES.H
C:\PROGRAM FILES (X86)\WINDOWS KITS\8.0\INCLUDE\UM\WINSOCK2.H
C:\PROGRAM FILES (X86)\WINDOWS KITS\8.0\INCLUDE\SHARED\WS2DEF.H
C:\PROGRAM FILES (X86)\WINDOWS KITS\8.0\INCLUDE\SHARED\INADDR.H
C:\PROGRAM FILES (X86)\WINDOWS KITS\8.0\INCLUDE\SHARED\QOS.H
C:\USERS\SCOTT\DROPBOX\WILDYETILABS\HEXAGONGAME-13\CPP\HEXAGON\COCOS2D\COCOS\2D\COCOS2D.H
C:\USERS\SCOTT\DROPBOX\WILDYETILABS\HEXAGONGAME-13\CPP\HEXAGON\COCOS2D\COCOS\2D\CCACTION.H
C:\USERS\SCOTT\DROPBOX\WILDYETILABS\HEXAGONGAME-13\CPP\HEXAGON\COCOS2D\COCOS\BASE\CCREF.H
C:\USERS\SCOTT\DROPBOX\WILDYETILABS\HEXAGONGAME-13\CPP\HEXAGON\COCOS2D\COCOS\BASE\CCGEOMETRY.H
C:\PROGRAM FILES (X86)\MICROSOFT VISUAL STUDIO 11.0\VC\INCLUDE\FUNCTIONAL
C:\PROGRAM FILES (X86)\MICROSOFT VISUAL STUDIO 11.0\VC\INCLUDE\XFUNCTIONAL
C:\PROGRAM FILES (X86)\MICROSOFT VISUAL STUDIO 11.0\VC\INCLUDE\TUPLE
C:\USERS\SCOTT\DROPBOX\WILDYETILABS\HEXAGONGAME-13\CPP\HEXAGON\COCOS2D\COCOS\2D\CCMACROS.H
C:\USERS\SCOTT\DROPBOX\WILDYETILABS\HEXAGONGAME-13\CPP\HEXAGON\COCOS2D\COCOS\BASE\CCCONSOLE.H
C:\PROGRAM FILES (X86)\MICROSOFT VISUAL STUDIO 11.0\VC\INCLUDE\THREAD
C:\PROGRAM FILES (X86)\MICROSOFT VISUAL STUDIO 11.0\VC\INCLUDE\CHRONO
C:\PROGRAM FILES (X86)\MICROSOFT VISUAL STUDIO 11.0\VC\INCLUDE\RATIO
C:\PROGRAM FILES (X86)\MICROSOFT VISUAL STUDIO 11.0\VC\INCLUDE\THR\XTIMEC.H
C:\PROGRAM FILES (X86)\MICROSOFT VISUAL STUDIO 11.0\VC\INCLUDE\THR\XTHRCOMMON.H
C:\PROGRAM FILES (X86)\MICROSOFT VISUAL STUDIO 11.0\VC\INCLUDE\CONCRT.H
C:\PROGRAM FILES (X86)\MICROSOFT VISUAL STUDIO 11.0\VC\INCLUDE\THR\XTHREAD
C:\PROGRAM FILES (X86)\MICROSOFT VISUAL STUDIO 11.0\VC\INCLUDE\THR\XTIME
C:\PROGRAM FILES (X86)\MICROSOFT VISUAL STUDIO 11.0\VC\INCLUDE\THR\XTHREADS.H
C:\PROGRAM FILES (X86)\MICROSOFT VISUAL STUDIO 11.0\VC\INCLUDE\VECTOR
C:\PROGRAM FILES (X86)\MICROSOFT VISUAL STUDIO 11.0\VC\INCLUDE\STRING
C:\PROGRAM FILES (X86)\MICROSOFT VISUAL STUDIO 11.0\VC\INCLUDE\ITERATOR
C:\PROGRAM FILES (X86)\MICROSOFT VISUAL STUDIO 11.0\VC\INCLUDE\ISTREAM
C:\PROGRAM FILES (X86)\MICROSOFT VISUAL STUDIO 11.0\VC\INCLUDE\OSTREAM
C:\PROGRAM FILES (X86)\MICROSOFT VISUAL STUDIO 11.0\VC\INCLUDE\IOS
C:\PROGRAM FILES (X86)\MICROSOFT VISUAL STUDIO 11.0\VC\INCLUDE\XLOCNUM
C:\PROGRAM FILES (X86)\MICROSOFT VISUAL STUDIO 11.0\VC\INCLUDE\STREAMBUF
C:\PROGRAM FILES (X86)\MICROSOFT VISUAL STUDIO 11.0\VC\INCLUDE\XIOSBASE
C:\PROGRAM FILES (X86)\MICROSOFT VISUAL STUDIO 11.0\VC\INCLUDE\XLOCALE
C:\PROGRAM FILES (X86)\MICROSOFT VISUAL STUDIO 11.0\VC\INCLUDE\XLOCINFO
C:\PROGRAM FILES (X86)\MICROSOFT VISUAL STUDIO 11.0\VC\INCLUDE\XLOCINFO.H
C:\PROGRAM FILES (X86)\MICROSOFT VISUAL STUDIO 11.0\VC\INCLUDE\LOCALE.H
C:\PROGRAM FILES (X86)\MICROSOFT VISUAL STUDIO 11.0\VC\INCLUDE\XDEBUG
C:\PROGRAM FILES (X86)\MICROSOFT VISUAL STUDIO 11.0\VC\INCLUDE\XFACET
C:\PROGRAM FILES (X86)\MICROSOFT VISUAL STUDIO 11.0\VC\INCLUDE\SYSTEM_ERROR
C:\PROGRAM FILES (X86)\MICROSOFT VISUAL STUDIO 11.0\VC\INCLUDE\CERRNO
C:\PROGRAM FILES (X86)\MICROSOFT VISUAL STUDIO 11.0\VC\INCLUDE\ERRNO.H
C:\PROGRAM FILES (X86)\MICROSOFT VISUAL STUDIO 11.0\VC\INCLUDE\SHARE.H
C:\PROGRAM FILES (X86)\MICROSOFT VISUAL STUDIO 11.0\VC\INCLUDE\MUTEX
C:\USERS\SCOTT\DROPBOX\WILDYETILABS\HEXAGONGAME-13\CPP\HEXAGON\COCOS2D\COCOS\2D\CCACTIONINTERVAL.H
C:\USERS\SCOTT\DROPBOX\WILDYETILABS\HEXAGONGAME-13\CPP\HEXAGON\COCOS2D\COCOS\2D\CCNODE.H
C:\USERS\SCOTT\DROPBOX\WILDYETILABS\HEXAGONGAME-13\CPP\HEXAGON\COCOS2D\COCOS\BASE\CCAFFINETRANSFORM.H
C:\USERS\SCOTT\DROPBOX\WILDYETILABS\HEXAGONGAME-13\CPP\HEXAGON\COCOS2D\COCOS\MATH\KAZMATH\KAZMATH\KAZMATH.H
C:\USERS\SCOTT\DROPBOX\WILDYETILABS\HEXAGONGAME-13\CPP\HEXAGON\COCOS2D\COCOS\MATH\KAZMATH\KAZMATH\VEC2.H
C:\USERS\SCOTT\DROPBOX\WILDYETILABS\HEXAGONGAME-13\CPP\HEXAGON\COCOS2D\COCOS\MATH\KAZMATH\KAZMATH\UTILITY.H
C:\USERS\SCOTT\DROPBOX\WILDYETILABS\HEXAGONGAME-13\CPP\HEXAGON\COCOS2D\COCOS\MATH\KAZMATH\KAZMATH\VEC3.H
C:\USERS\SCOTT\DROPBOX\WILDYETILABS\HEXAGONGAME-13\CPP\HEXAGON\COCOS2D\COCOS\MATH\KAZMATH\KAZMATH\MAT3.H
C:\USERS\SCOTT\DROPBOX\WILDYETILABS\HEXAGONGAME-13\CPP\HEXAGON\COCOS2D\COCOS\MATH\KAZMATH\KAZMATH\MAT4.H
C:\USERS\SCOTT\DROPBOX\WILDYETILABS\HEXAGONGAME-13\CPP\HEXAGON\COCOS2D\COCOS\MATH\KAZMATH\KAZMATH\QUATERNION.H
C:\USERS\SCOTT\DROPBOX\WILDYETILABS\HEXAGONGAME-13\CPP\HEXAGON\COCOS2D\COCOS\MATH\KAZMATH\KAZMATH\PLANE.H
C:\USERS\SCOTT\DROPBOX\WILDYETILABS\HEXAGONGAME-13\CPP\HEXAGON\COCOS2D\COCOS\MATH\KAZMATH\KAZMATH\AABB.H
C:\USERS\SCOTT\DROPBOX\WILDYETILABS\HEXAGONGAME-13\CPP\HEXAGON\COCOS2D\COCOS\MATH\KAZMATH\KAZMATH\RAY2.H
C:\USERS\SCOTT\DROPBOX\WILDYETILABS\HEXAGONGAME-13\CPP\HEXAGON\COCOS2D\COCOS\MATH\KAZMATH\KAZMATH\RAY3.H
C:\USERS\SCOTT\DROPBOX\WILDYETILABS\HEXAGONGAME-13\CPP\HEXAGON\COCOS2D\COCOS\BASE\CCARRAY.H
C:\USERS\SCOTT\DROPBOX\WILDYETILABS\HEXAGONGAME-13\CPP\HEXAGON\COCOS2D\COCOS\2D\CCCARRAY.H
C:\USERS\SCOTT\DROPBOX\WILDYETILABS\HEXAGONGAME-13\CPP\HEXAGON\COCOS2D\COCOS\BASE\CCDATAVISITOR.H
C:\USERS\SCOTT\DROPBOX\WILDYETILABS\HEXAGONGAME-13\CPP\HEXAGON\COCOS2D\COCOS\2D\PLATFORM\WIN32\CCGL.H
C:\USERS\SCOTT\DROPBOX\WILDYETILABS\HEXAGONGAME-13\CPP\HEXAGON\COCOS2D\EXTERNAL\WIN32-SPECIFIC\GLES\INCLUDE\OGLES\GL\GLEW.H
C:\PROGRAM FILES (X86)\WINDOWS KITS\8.0\INCLUDE\UM\GL\GLU.H
C:\PROGRAM FILES (X86)\WINDOWS KITS\8.0\INCLUDE\UM\GL\GL.H
C:\USERS\SCOTT\DROPBOX\WILDYETILABS\HEXAGONGAME-13\CPP\HEXAGON\COCOS2D\COCOS\2D\CCGLSTATECACHE.H
C:\USERS\SCOTT\DROPBOX\WILDYETILABS\HEXAGONGAME-13\CPP\HEXAGON\COCOS2D\COCOS\2D\CCGLPROGRAM.H
C:\USERS\SCOTT\DROPBOX\WILDYETILABS\HEXAGONGAME-13\CPP\HEXAGON\COCOS2D\COCOS\2D\CCSCRIPTSUPPORT.H
C:\USERS\SCOTT\DROPBOX\WILDYETILABS\HEXAGONGAME-13\CPP\HEXAGON\COCOS2D\COCOS\2D\PLATFORM\CCCOMMON.H
C:\USERS\SCOTT\DROPBOX\WILDYETILABS\HEXAGONGAME-13\CPP\HEXAGON\COCOS2D\COCOS\2D\CCTOUCH.H
C:\USERS\SCOTT\DROPBOX\WILDYETILABS\HEXAGONGAME-13\CPP\HEXAGON\COCOS2D\COCOS\2D\CCEVENTTOUCH.H
C:\USERS\SCOTT\DROPBOX\WILDYETILABS\HEXAGONGAME-13\CPP\HEXAGON\COCOS2D\COCOS\2D\CCEVENT.H
C:\USERS\SCOTT\DROPBOX\WILDYETILABS\HEXAGONGAME-13\CPP\HEXAGON\COCOS2D\COCOS\2D\CCEVENTKEYBOARD.H
C:\USERS\SCOTT\DROPBOX\WILDYETILABS\HEXAGONGAME-13\CPP\HEXAGON\COCOS2D\COCOS\BASE\CCSET.H
C:\PROGRAM FILES (X86)\MICROSOFT VISUAL STUDIO 11.0\VC\INCLUDE\SET
C:\PROGRAM FILES (X86)\MICROSOFT VISUAL STUDIO 11.0\VC\INCLUDE\LIST
C:\USERS\SCOTT\DROPBOX\WILDYETILABS\HEXAGONGAME-13\CPP\HEXAGON\COCOS2D\COCOS\2D\CCPROTOCOLS.H
C:\USERS\SCOTT\DROPBOX\WILDYETILABS\HEXAGONGAME-13\CPP\HEXAGON\COCOS2D\COCOS\2D\CCTYPES.H
C:\USERS\SCOTT\DROPBOX\WILDYETILABS\HEXAGONGAME-13\CPP\HEXAGON\COCOS2D\COCOS\2D\CCTEXTURE2D.H
C:\USERS\SCOTT\DROPBOX\WILDYETILABS\HEXAGONGAME-13\CPP\HEXAGON\COCOS2D\COCOS\2D\CCEVENTDISPATCHER.H
C:\USERS\SCOTT\DROPBOX\WILDYETILABS\HEXAGONGAME-13\CPP\HEXAGON\COCOS2D\COCOS\2D\CCEVENTLISTENER.H
C:\PROGRAM FILES (X86)\MICROSOFT VISUAL STUDIO 11.0\VC\INCLUDE\MEMORY
C:\PROGRAM FILES (X86)\MICROSOFT VISUAL STUDIO 11.0\VC\INCLUDE\UNORDERED_MAP
C:\PROGRAM FILES (X86)\MICROSOFT VISUAL STUDIO 11.0\VC\INCLUDE\XHASH
C:\USERS\SCOTT\DROPBOX\WILDYETILABS\HEXAGONGAME-13\CPP\HEXAGON\COCOS2D\COCOS\BASE\CCVECTOR.H
C:\PROGRAM FILES (X86)\MICROSOFT VISUAL STUDIO 11.0\VC\INCLUDE\ALGORITHM
C:\USERS\SCOTT\DROPBOX\WILDYETILABS\HEXAGONGAME-13\CPP\HEXAGON\COCOS2D\COCOS\2D\CCSPRITEFRAME.H
C:\USERS\SCOTT\DROPBOX\WILDYETILABS\HEXAGONGAME-13\CPP\HEXAGON\COCOS2D\COCOS\2D\CCANIMATION.H
C:\USERS\SCOTT\DROPBOX\WILDYETILABS\HEXAGONGAME-13\CPP\HEXAGON\COCOS2D\COCOS\BASE\CCVALUE.H
C:\USERS\SCOTT\DROPBOX\WILDYETILABS\HEXAGONGAME-13\CPP\HEXAGON\COCOS2D\COCOS\2D\CCACTIONCAMERA.H
C:\USERS\SCOTT\DROPBOX\WILDYETILABS\HEXAGONGAME-13\CPP\HEXAGON\COCOS2D\COCOS\2D\CCACTIONMANAGER.H
C:\USERS\SCOTT\DROPBOX\WILDYETILABS\HEXAGONGAME-13\CPP\HEXAGON\COCOS2D\COCOS\2D\CCACTIONEASE.H
C:\USERS\SCOTT\DROPBOX\WILDYETILABS\HEXAGONGAME-13\CPP\HEXAGON\COCOS2D\COCOS\2D\CCACTIONPAGETURN3D.H
C:\USERS\SCOTT\DROPBOX\WILDYETILABS\HEXAGONGAME-13\CPP\HEXAGON\COCOS2D\COCOS\2D\CCACTIONGRID3D.H
C:\USERS\SCOTT\DROPBOX\WILDYETILABS\HEXAGONGAME-13\CPP\HEXAGON\COCOS2D\COCOS\2D\CCACTIONGRID.H
C:\USERS\SCOTT\DROPBOX\WILDYETILABS\HEXAGONGAME-13\CPP\HEXAGON\COCOS2D\COCOS\2D\CCACTIONINSTANT.H
C:\USERS\SCOTT\DROPBOX\WILDYETILABS\HEXAGONGAME-13\CPP\HEXAGON\COCOS2D\COCOS\2D\CCACTIONPROGRESSTIMER.H
C:\USERS\SCOTT\DROPBOX\WILDYETILABS\HEXAGONGAME-13\CPP\HEXAGON\COCOS2D\COCOS\2D\CCACTIONTILEDGRID.H
C:\USERS\SCOTT\DROPBOX\WILDYETILABS\HEXAGONGAME-13\CPP\HEXAGON\COCOS2D\COCOS\2D\CCACTIONTWEEN.H
C:\USERS\SCOTT\DROPBOX\WILDYETILABS\HEXAGONGAME-13\CPP\HEXAGON\COCOS2D\COCOS\2D\CCACTIONCATMULLROM.H
C:\USERS\SCOTT\DROPBOX\WILDYETILABS\HEXAGONGAME-13\CPP\HEXAGON\COCOS2D\COCOS\2D\CCTWEENFUNCTION.H
C:\USERS\SCOTT\DROPBOX\WILDYETILABS\HEXAGONGAME-13\CPP\HEXAGON\COCOS2D\COCOS\2D\CCATLASNODE.H
C:\USERS\SCOTT\DROPBOX\WILDYETILABS\HEXAGONGAME-13\CPP\HEXAGON\COCOS2D\COCOS\2D\RENDERER\CCQUADCOMMAND.H
C:\USERS\SCOTT\DROPBOX\WILDYETILABS\HEXAGONGAME-13\CPP\HEXAGON\COCOS2D\COCOS\2D\RENDERER\CCRENDERCOMMAND.H
C:\USERS\SCOTT\DROPBOX\WILDYETILABS\HEXAGONGAME-13\CPP\HEXAGON\COCOS2D\COCOS\MATH\KAZMATH\KAZMATH\GL\MATRIX.H
C:\USERS\SCOTT\DROPBOX\WILDYETILABS\HEXAGONGAME-13\CPP\HEXAGON\COCOS2D\COCOS\2D\RENDERER\CCRENDERCOMMANDPOOL.H
C:\USERS\SCOTT\DROPBOX\WILDYETILABS\HEXAGONGAME-13\CPP\HEXAGON\COCOS2D\COCOS\BASE\CCDICTIONARY.H
C:\USERS\SCOTT\DROPBOX\WILDYETILABS\HEXAGONGAME-13\CPP\HEXAGON\COCOS2D\COCOS\2D\UTHASH.H
C:\USERS\SCOTT\DROPBOX\WILDYETILABS\HEXAGONGAME-13\CPP\HEXAGON\COCOS2D\COCOS\BASE\CCSTRING.H
C:\PROGRAM FILES (X86)\MICROSOFT VISUAL STUDIO 11.0\VC\INCLUDE\SSTREAM
C:\USERS\SCOTT\DROPBOX\WILDYETILABS\HEXAGONGAME-13\CPP\HEXAGON\COCOS2D\COCOS\BASE\CCMAP.H
C:\USERS\SCOTT\DROPBOX\WILDYETILABS\HEXAGONGAME-13\CPP\HEXAGON\COCOS2D\COCOS\BASE\CCAUTORELEASEPOOL.H
C:\PROGRAM FILES (X86)\MICROSOFT VISUAL STUDIO 11.0\VC\INCLUDE\STACK
C:\PROGRAM FILES (X86)\MICROSOFT VISUAL STUDIO 11.0\VC\INCLUDE\DEQUE
C:\USERS\SCOTT\DROPBOX\WILDYETILABS\HEXAGONGAME-13\CPP\HEXAGON\COCOS2D\COCOS\BASE\CCINTEGER.H
C:\USERS\SCOTT\DROPBOX\WILDYETILABS\HEXAGONGAME-13\CPP\HEXAGON\COCOS2D\COCOS\BASE\CCFLOAT.H
C:\USERS\SCOTT\DROPBOX\WILDYETILABS\HEXAGONGAME-13\CPP\HEXAGON\COCOS2D\COCOS\BASE\CCDOUBLE.H
C:\USERS\SCOTT\DROPBOX\WILDYETILABS\HEXAGONGAME-13\CPP\HEXAGON\COCOS2D\COCOS\BASE\CCBOOL.H
C:\USERS\SCOTT\DROPBOX\WILDYETILABS\HEXAGONGAME-13\CPP\HEXAGON\COCOS2D\COCOS\BASE\CCNS.H
C:\USERS\SCOTT\DROPBOX\WILDYETILABS\HEXAGONGAME-13\CPP\HEXAGON\COCOS2D\COCOS\BASE\CCDATA.H
C:\USERS\SCOTT\DROPBOX\WILDYETILABS\HEXAGONGAME-13\CPP\HEXAGON\COCOS2D\COCOS\2D\CCDRAWINGPRIMITIVES.H
C:\USERS\SCOTT\DROPBOX\WILDYETILABS\HEXAGONGAME-13\CPP\HEXAGON\COCOS2D\COCOS\2D\CCDRAWNODE.H
C:\USERS\SCOTT\DROPBOX\WILDYETILABS\HEXAGONGAME-13\CPP\HEXAGON\COCOS2D\COCOS\2D\RENDERER\CCCUSTOMCOMMAND.H
C:\USERS\SCOTT\DROPBOX\WILDYETILABS\HEXAGONGAME-13\CPP\HEXAGON\COCOS2D\COCOS\2D\CCGRABBER.H
C:\USERS\SCOTT\DROPBOX\WILDYETILABS\HEXAGONGAME-13\CPP\HEXAGON\COCOS2D\COCOS\2D\CCCONFIGURATION.H
C:\USERS\SCOTT\DROPBOX\WILDYETILABS\HEXAGONGAME-13\CPP\HEXAGON\COCOS2D\COCOS\2D\CCGRID.H
C:\USERS\SCOTT\DROPBOX\WILDYETILABS\HEXAGONGAME-13\CPP\HEXAGON\COCOS2D\COCOS\2D\CCDIRECTOR.H
C:\USERS\SCOTT\DROPBOX\WILDYETILABS\HEXAGONGAME-13\CPP\HEXAGON\COCOS2D\COCOS\2D\CCLABELATLAS.H
C:\USERS\SCOTT\DROPBOX\WILDYETILABS\HEXAGONGAME-13\CPP\HEXAGON\COCOS2D\COCOS\2D\CCEVENTTYPE.H
C:\USERS\SCOTT\DROPBOX\WILDYETILABS\HEXAGONGAME-13\CPP\HEXAGON\COCOS2D\COCOS\2D\CCLABELTTF.H
C:\USERS\SCOTT\DROPBOX\WILDYETILABS\HEXAGONGAME-13\CPP\HEXAGON\COCOS2D\COCOS\2D\CCLABELBMFONT.H
C:\USERS\SCOTT\DROPBOX\WILDYETILABS\HEXAGONGAME-13\CPP\HEXAGON\COCOS2D\COCOS\2D\CCLABEL.H
C:\USERS\SCOTT\DROPBOX\WILDYETILABS\HEXAGONGAME-13\CPP\HEXAGON\COCOS2D\COCOS\2D\CCSPRITEBATCHNODE.H
C:\USERS\SCOTT\DROPBOX\WILDYETILABS\HEXAGONGAME-13\CPP\HEXAGON\COCOS2D\COCOS\2D\CCTEXTUREATLAS.H
C:\USERS\SCOTT\DROPBOX\WILDYETILABS\HEXAGONGAME-13\CPP\HEXAGON\COCOS2D\COCOS\2D\RENDERER\CCBATCHCOMMAND.H
C:\USERS\SCOTT\DROPBOX\WILDYETILABS\HEXAGONGAME-13\CPP\HEXAGON\COCOS2D\COCOS\2D\CCFONTATLAS.H
C:\USERS\SCOTT\DROPBOX\WILDYETILABS\HEXAGONGAME-13\CPP\HEXAGON\COCOS2D\COCOS\2D\CCLAYER.H
C:\USERS\SCOTT\DROPBOX\WILDYETILABS\HEXAGONGAME-13\CPP\HEXAGON\COCOS2D\COCOS\2D\CCSCENE.H
C:\USERS\SCOTT\DROPBOX\WILDYETILABS\HEXAGONGAME-13\CPP\HEXAGON\COCOS2D\COCOS\PHYSICS\CCPHYSICSWORLD.H
C:\USERS\SCOTT\DROPBOX\WILDYETILABS\HEXAGONGAME-13\CPP\HEXAGON\COCOS2D\COCOS\2D\CCTRANSITION.H
C:\USERS\SCOTT\DROPBOX\WILDYETILABS\HEXAGONGAME-13\CPP\HEXAGON\COCOS2D\COCOS\2D\CCTRANSITIONPAGETURN.H
C:\USERS\SCOTT\DROPBOX\WILDYETILABS\HEXAGONGAME-13\CPP\HEXAGON\COCOS2D\COCOS\2D\CCTRANSITIONPROGRESS.H
C:\USERS\SCOTT\DROPBOX\WILDYETILABS\HEXAGONGAME-13\CPP\HEXAGON\COCOS2D\COCOS\2D\CCMENU.H
C:\USERS\SCOTT\DROPBOX\WILDYETILABS\HEXAGONGAME-13\CPP\HEXAGON\COCOS2D\COCOS\2D\CCMENUITEM.H
C:\USERS\SCOTT\DROPBOX\WILDYETILABS\HEXAGONGAME-13\CPP\HEXAGON\COCOS2D\COCOS\2D\CCCLIPPINGNODE.H
C:\USERS\SCOTT\DROPBOX\WILDYETILABS\HEXAGONGAME-13\CPP\HEXAGON\COCOS2D\COCOS\2D\RENDERER\CCGROUPCOMMAND.H
C:\USERS\SCOTT\DROPBOX\WILDYETILABS\HEXAGONGAME-13\CPP\HEXAGON\COCOS2D\COCOS\2D\CCMOTIONSTREAK.H
C:\USERS\SCOTT\DROPBOX\WILDYETILABS\HEXAGONGAME-13\CPP\HEXAGON\COCOS2D\COCOS\2D\CCPROGRESSTIMER.H
C:\USERS\SCOTT\DROPBOX\WILDYETILABS\HEXAGONGAME-13\CPP\HEXAGON\COCOS2D\COCOS\2D\CCSPRITE.H
C:\USERS\SCOTT\DROPBOX\WILDYETILABS\HEXAGONGAME-13\CPP\HEXAGON\COCOS2D\COCOS\PHYSICS\CCPHYSICSBODY.H
C:\USERS\SCOTT\DROPBOX\WILDYETILABS\HEXAGONGAME-13\CPP\HEXAGON\COCOS2D\COCOS\PHYSICS\CCPHYSICSSHAPE.H
C:\USERS\SCOTT\DROPBOX\WILDYETILABS\HEXAGONGAME-13\CPP\HEXAGON\COCOS2D\COCOS\2D\CCRENDERTEXTURE.H
C:\USERS\SCOTT\DROPBOX\WILDYETILABS\HEXAGONGAME-13\CPP\HEXAGON\COCOS2D\COCOS\2D\PLATFORM\CCIMAGE.H
C:\USERS\SCOTT\DROPBOX\WILDYETILABS\HEXAGONGAME-13\CPP\HEXAGON\COCOS2D\COCOS\2D\CCNODEGRID.H
C:\USERS\SCOTT\DROPBOX\WILDYETILABS\HEXAGONGAME-13\CPP\HEXAGON\COCOS2D\COCOS\2D\CCPARTICLEBATCHNODE.H
C:\USERS\SCOTT\DROPBOX\WILDYETILABS\HEXAGONGAME-13\CPP\HEXAGON\COCOS2D\COCOS\2D\CCPARTICLESYSTEM.H
C:\USERS\SCOTT\DROPBOX\WILDYETILABS\HEXAGONGAME-13\CPP\HEXAGON\COCOS2D\COCOS\2D\CCPARTICLEEXAMPLES.H
C:\USERS\SCOTT\DROPBOX\WILDYETILABS\HEXAGONGAME-13\CPP\HEXAGON\COCOS2D\COCOS\2D\CCPARTICLESYSTEMQUAD.H
C:\USERS\SCOTT\DROPBOX\WILDYETILABS\HEXAGONGAME-13\CPP\HEXAGON\COCOS2D\COCOS\2D\RENDERER\CCFRUSTUM.H
C:\USERS\SCOTT\DROPBOX\WILDYETILABS\HEXAGONGAME-13\CPP\HEXAGON\COCOS2D\COCOS\2D\RENDERER\CCMATERIALMANAGER.H
C:\USERS\SCOTT\DROPBOX\WILDYETILABS\HEXAGONGAME-13\CPP\HEXAGON\COCOS2D\COCOS\2D\RENDERER\CCRENDERMATERIAL.H
C:\USERS\SCOTT\DROPBOX\WILDYETILABS\HEXAGONGAME-13\CPP\HEXAGON\COCOS2D\COCOS\2D\RENDERER\CCRENDERER.H
C:\USERS\SCOTT\DROPBOX\WILDYETILABS\HEXAGONGAME-13\CPP\HEXAGON\COCOS2D\COCOS\PHYSICS\CCPHYSICSCONTACT.H
C:\USERS\SCOTT\DROPBOX\WILDYETILABS\HEXAGONGAME-13\CPP\HEXAGON\COCOS2D\COCOS\2D\CCEVENTLISTENERCUSTOM.H
C:\USERS\SCOTT\DROPBOX\WILDYETILABS\HEXAGONGAME-13\CPP\HEXAGON\COCOS2D\COCOS\2D\CCEVENTCUSTOM.H
C:\USERS\SCOTT\DROPBOX\WILDYETILABS\HEXAGONGAME-13\CPP\HEXAGON\COCOS2D\COCOS\PHYSICS\CCPHYSICSJOINT.H
C:\USERS\SCOTT\DROPBOX\WILDYETILABS\HEXAGONGAME-13\CPP\HEXAGON\COCOS2D\COCOS\2D\PLATFORM\CCDEVICE.H
C:\USERS\SCOTT\DROPBOX\WILDYETILABS\HEXAGONGAME-13\CPP\HEXAGON\COCOS2D\COCOS\2D\PLATFORM\CCFILEUTILS.H
C:\USERS\SCOTT\DROPBOX\WILDYETILABS\HEXAGONGAME-13\CPP\HEXAGON\COCOS2D\COCOS\2D\PLATFORM\CCSAXPARSER.H
C:\USERS\SCOTT\DROPBOX\WILDYETILABS\HEXAGONGAME-13\CPP\HEXAGON\COCOS2D\COCOS\2D\PLATFORM\CCTHREAD.H
C:\USERS\SCOTT\DROPBOX\WILDYETILABS\HEXAGONGAME-13\CPP\HEXAGON\COCOS2D\COCOS\2D\PLATFORM\WIN32\CCAPPLICATION.H
C:\USERS\SCOTT\DROPBOX\WILDYETILABS\HEXAGONGAME-13\CPP\HEXAGON\COCOS2D\COCOS\2D\PLATFORM\CCAPPLICATIONPROTOCOL.H
C:\USERS\SCOTT\DROPBOX\WILDYETILABS\HEXAGONGAME-13\CPP\HEXAGON\COCOS2D\COCOS\2D\PLATFORM\DESKTOP\CCGLVIEW.H
C:\USERS\SCOTT\DROPBOX\WILDYETILABS\HEXAGONGAME-13\CPP\HEXAGON\COCOS2D\COCOS\2D\PLATFORM\CCGLVIEWPROTOCOL.H
C:\USERS\SCOTT\DROPBOX\WILDYETILABS\HEXAGONGAME-13\CPP\HEXAGON\COCOS2D\EXTERNAL\GLFW3\INCLUDE\WIN32\GLFW3.H
C:\USERS\SCOTT\DROPBOX\WILDYETILABS\HEXAGONGAME-13\CPP\HEXAGON\COCOS2D\COCOS\2D\CCSHADERCACHE.H
C:\USERS\SCOTT\DROPBOX\WILDYETILABS\HEXAGONGAME-13\CPP\HEXAGON\COCOS2D\COCOS\2D\CCSHADERS.H
C:\USERS\SCOTT\DROPBOX\WILDYETILABS\HEXAGONGAME-13\CPP\HEXAGON\COCOS2D\COCOS\2D\CCANIMATIONCACHE.H
C:\USERS\SCOTT\DROPBOX\WILDYETILABS\HEXAGONGAME-13\CPP\HEXAGON\COCOS2D\COCOS\2D\CCSPRITEFRAMECACHE.H
C:\USERS\SCOTT\DROPBOX\WILDYETILABS\HEXAGONGAME-13\CPP\HEXAGON\COCOS2D\COCOS\2D\CCUTF8.H
C:\USERS\SCOTT\DROPBOX\WILDYETILABS\HEXAGONGAME-13\CPP\HEXAGON\COCOS2D\COCOS\2D\CCNOTIFICATIONCENTER.H
C:\USERS\SCOTT\DROPBOX\WILDYETILABS\HEXAGONGAME-13\CPP\HEXAGON\COCOS2D\COCOS\2D\CCPROFILING.H
C:\USERS\SCOTT\DROPBOX\WILDYETILABS\HEXAGONGAME-13\CPP\HEXAGON\COCOS2D\COCOS\2D\CCUSERDEFAULT.H
C:\USERS\SCOTT\DROPBOX\WILDYETILABS\HEXAGONGAME-13\CPP\HEXAGON\COCOS2D\COCOS\2D\CCVERTEX.H
C:\USERS\SCOTT\DROPBOX\WILDYETILABS\HEXAGONGAME-13\CPP\HEXAGON\COCOS2D\COCOS\2D\CCIMEDELEGATE.H
C:\USERS\SCOTT\DROPBOX\WILDYETILABS\HEXAGONGAME-13\CPP\HEXAGON\COCOS2D\COCOS\2D\CCIMEDISPATCHER.H
C:\USERS\SCOTT\DROPBOX\WILDYETILABS\HEXAGONGAME-13\CPP\HEXAGON\COCOS2D\COCOS\2D\CCTEXTFIELDTTF.H
C:\USERS\SCOTT\DROPBOX\WILDYETILABS\HEXAGONGAME-13\CPP\HEXAGON\COCOS2D\COCOS\2D\CCTEXTURECACHE.H
C:\PROGRAM FILES (X86)\MICROSOFT VISUAL STUDIO 11.0\VC\INCLUDE\CONDITION_VARIABLE
C:\PROGRAM FILES (X86)\MICROSOFT VISUAL STUDIO 11.0\VC\INCLUDE\QUEUE
C:\USERS\SCOTT\DROPBOX\WILDYETILABS\HEXAGONGAME-13\CPP\HEXAGON\COCOS2D\COCOS\2D\CCPARALLAXNODE.H
C:\USERS\SCOTT\DROPBOX\WILDYETILABS\HEXAGONGAME-13\CPP\HEXAGON\COCOS2D\COCOS\2D\CCTMXLAYER.H
C:\USERS\SCOTT\DROPBOX\WILDYETILABS\HEXAGONGAME-13\CPP\HEXAGON\COCOS2D\COCOS\2D\CCTMXOBJECTGROUP.H
C:\USERS\SCOTT\DROPBOX\WILDYETILABS\HEXAGONGAME-13\CPP\HEXAGON\COCOS2D\COCOS\2D\CCTMXXMLPARSER.H
C:\USERS\SCOTT\DROPBOX\WILDYETILABS\HEXAGONGAME-13\CPP\HEXAGON\COCOS2D\COCOS\2D\CCTMXTILEDMAP.H
C:\USERS\SCOTT\DROPBOX\WILDYETILABS\HEXAGONGAME-13\CPP\HEXAGON\COCOS2D\COCOS\2D\CCTILEMAPATLAS.H
C:\USERS\SCOTT\DROPBOX\WILDYETILABS\HEXAGONGAME-13\CPP\HEXAGON\COCOS2D\COCOS\2D\CCEVENTLISTENERTOUCH.H
C:\USERS\SCOTT\DROPBOX\WILDYETILABS\HEXAGONGAME-13\CPP\HEXAGON\COCOS2D\COCOS\2D\CCEVENTLISTENERKEYBOARD.H
C:\USERS\SCOTT\DROPBOX\WILDYETILABS\HEXAGONGAME-13\CPP\HEXAGON\COCOS2D\COCOS\2D\CCEVENTLISTENERMOUSE.H
C:\USERS\SCOTT\DROPBOX\WILDYETILABS\HEXAGONGAME-13\CPP\HEXAGON\COCOS2D\COCOS\2D\CCEVENTMOUSE.H
C:\USERS\SCOTT\DROPBOX\WILDYETILABS\HEXAGONGAME-13\CPP\HEXAGON\COCOS2D\COCOS\2D\CCEVENTACCELERATION.H
C:\USERS\SCOTT\DROPBOX\WILDYETILABS\HEXAGONGAME-13\CPP\HEXAGON\COCOS2D\COCOS\2D\CCEVENTLISTENERACCELERATION.H
C:\USERS\SCOTT\DROPBOX\WILDYETILABS\HEXAGONGAME-13\CPP\HEXAGON\COCOS2D\COCOS\2D\CCSCHEDULER.H
C:\USERS\SCOTT\DROPBOX\WILDYETILABS\HEXAGONGAME-13\CPP\HEXAGON\COCOS2D\COCOS\2D\CCCOMPONENT.H
C:\USERS\SCOTT\DROPBOX\WILDYETILABS\HEXAGONGAME-13\CPP\HEXAGON\COCOS2D\COCOS\2D\CCCOMPONENTCONTAINER.H
C:\USERS\SCOTT\DROPBOX\WILDYETILABS\HEXAGONGAME-13\CPP\HEXAGON\COCOS2D\COCOS\2D\CCDEPRECATED.H
